sim/tb_tinker_core.vcd
$date
	Tue Mar 31 17:18:50 2026
$end
$version
	Icarus Verilog
$end
$timescale
	1ns
$end
$scope module tb_tinker_core $end
$var reg 1 ! clk $end
$var reg 1 " reset $end
$var integer 32 # fail [31:0] $end
$var integer 32 $ pass [31:0] $end
$scope function enc $end
$var reg 12 % L [11:0] $end
$var reg 5 & d [4:0] $end
$var reg 5 ' op [4:0] $end
$var reg 5 ( s [4:0] $end
$var reg 5 ) t [4:0] $end
$upscope $end
$scope module core $end
$var wire 1 ! clk $end
$var wire 1 " reset $end
$var wire 5 * t [4:0] $end
$var wire 64 + stack_pointer [63:0] $end
$var wire 5 , s [4:0] $end
$var wire 64 - rt_data [63:0] $end
$var wire 64 . rs_data [63:0] $end
$var wire 1 / reg_write $end
$var wire 64 0 reg_out_value [63:0] $end
$var wire 64 1 rd_data [63:0] $end
$var wire 64 2 pc_address [63:0] $end
$var wire 5 3 opcode [4:0] $end
$var wire 1 4 ooo_signal $end
$var wire 64 5 ooo_address [63:0] $end
$var wire 1 6 memory_write $end
$var wire 64 7 memory_read_alu [63:0] $end
$var wire 64 8 memory_pointer [63:0] $end
$var wire 64 9 memory_data_to_write [63:0] $end
$var wire 32 : instruction [31:0] $end
$var wire 5 ; d [4:0] $end
$var wire 12 < L_data [11:0] $end
$scope module memory $end
$var wire 1 ! clk $end
$var wire 1 " reset $end
$var wire 1 6 write $end
$var wire 64 = pc [63:0] $end
$var wire 64 > alu_pointer [63:0] $end
$var wire 64 ? alu_data [63:0] $end
$var parameter 32 @ MEM_SIZE $end
$var reg 64 A address_value [63:0] $end
$var reg 32 B instruction [31:0] $end
$var integer 32 C i [31:0] $end
$upscope $end
$scope module reg_file $end
$var wire 1 ! clk $end
$var wire 1 " reset $end
$var wire 1 / write $end
$var wire 5 D t [4:0] $end
$var wire 5 E s [4:0] $end
$var wire 64 F data_write [63:0] $end
$var wire 5 G d [4:0] $end
$var parameter 32 H MEM_SIZE $end
$var reg 64 I rd [63:0] $end
$var reg 64 J rs [63:0] $end
$var reg 64 K rt [63:0] $end
$var reg 64 L stack_pointer [63:0] $end
$var integer 32 M i [31:0] $end
$upscope $end
$scope module u_alu $end
$var wire 64 N memory_value [63:0] $end
$var wire 64 O rd [63:0] $end
$var wire 64 P rs [63:0] $end
$var wire 64 Q rt [63:0] $end
$var wire 64 R stack_pointer [63:0] $end
$var wire 64 S pc [63:0] $end
$var wire 5 T opcode [4:0] $end
$var wire 12 U L [11:0] $end
$var reg 54 V addf_reg [53:0] $end
$var reg 13 W amount_shifted_1 [12:0] $end
$var reg 13 X amount_shifted_2 [12:0] $end
$var reg 1 Y carry_1 $end
$var reg 1 Z carry_2 $end
$var reg 109 [ divf_reg [108:0] $end
$var reg 13 \ final_exponent [12:0] $end
$var reg 13 ] float_exponent_1 [12:0] $end
$var reg 13 ^ float_exponent_2 [12:0] $end
$var reg 53 _ float_value_1 [52:0] $end
$var reg 53 ` float_value_2 [52:0] $end
$var reg 3 a grs_rounding [2:0] $end
$var reg 53 b mantissa_result [52:0] $end
$var reg 64 c memory_data_to_write [63:0] $end
$var reg 64 d memory_pointer [63:0] $end
$var reg 1 6 memory_write $end
$var reg 106 e multf_reg [105:0] $end
$var reg 64 f ooo_address [63:0] $end
$var reg 1 4 ooo_signal $end
$var reg 64 g reg_out_value [63:0] $end
$var reg 1 / reg_write $end
$var reg 1 h sign_1 $end
$var reg 1 i sign_2 $end
$scope begin $unm_blk_1 $end
$var integer 32 j found [31:0] $end
$var integer 32 k i [31:0] $end
$upscope $end
$upscope $end
$scope module u_decoder $end
$var wire 32 l instruction [31:0] $end
$var wire 5 m t [4:0] $end
$var wire 5 n s [4:0] $end
$var wire 5 o opcode [4:0] $end
$var wire 5 p d [4:0] $end
$var wire 12 q L [11:0] $end
$upscope $end
$scope module u_fetch $end
$var wire 1 ! clk $end
$var wire 64 r ooo_address [63:0] $end
$var wire 1 4 ooo_signal $end
$var wire 64 s pc_address [63:0] $end
$var wire 1 " reset $end
$var reg 64 t pc [63:0] $end
$upscope $end
$upscope $end
$scope task check64 $end
$var reg 64 u expected [63:0] $end
$var reg 64 v got [63:0] $end
$var reg 256 w label [255:0] $end
$upscope $end
$scope task do_reset $end
$upscope $end
$scope task load_instruction $end
$var reg 64 x addr [63:0] $end
$var reg 32 y instr [31:0] $end
$upscope $end
$scope task run_cycles $end
$var integer 32 z i [31:0] $end
$var integer 32 { n [31:0] $end
$upscope $end
$upscope $end
$enddefinitions $end
$comment Show the parameter values. $end
$dumpall
b10000000000000000000 H
b10000000000000000000 @
$end
#0
$dumpvars
bx {
bx z
b0 y
b10000000001100 x
bx w
bx v
bx u
b0 t
b0 s
b0 r
b0 q
b0 p
b0 o
b0 n
b0 m
b0 l
bx k
b0 j
0i
0h
b0 g
b0 f
b0 e
b0 d
b0 c
b0 b
b0 a
b0 `
b0 _
b0 ^
b0 ]
b0 \
b0 [
0Z
0Y
b0 X
b0 W
b0 V
b0 U
b0 T
b0 S
b10000000000000000000 R
b0 Q
b0 P
b0 O
b0 N
b11111 M
b10000000000000000000 L
b0 K
b0 J
b0 I
b0 G
b0 F
b0 E
b0 D
b10000000000000000000 C
b0 B
b0 A
b0 ?
b0 >
b0 =
b0 <
b0 ;
b0 :
b0 9
b0 8
b0 7
06
b0 5
04
b0 3
b0 2
b0 1
b0 0
1/
b0 .
b0 -
b0 ,
b10000000000000000000 +
b0 *
b0 )
b0 (
b0 '
b0 &
b0 %
b0 $
b0 #
0"
0!
$end
#5
b100 2
b100 =
b100 S
b100 s
b100 t
1"
1!
#10
0!
#15
b1010 0
b1010 F
b1010 g
b11001 3
b11001 T
b11001 o
b10 ;
b10 G
b10 p
b1010 <
b1010 U
b1010 q
b11001000100000000000000000001010 :
b11001000100000000000000000001010 B
b11001000100000000000000000001010 l
b10000000000000 2
b10000000000000 =
b10000000000000 S
b10000000000000 s
b10000000000000 t
0"
b11111 M
1!
#16
b0 z
b1 {
#20
0!
#25
b11 ;
b11 G
b11 p
b10100 <
b10100 U
b10100 q
b11001000110000000000000000010100 :
b11001000110000000000000000010100 B
b11001000110000000000000000010100 l
b10100 0
b10100 F
b10100 g
b0 1
b0 I
b0 O
b10000000000100 2
b10000000000100 =
b10000000000100 S
b10000000000100 s
b10000000000100 t
b1 z
1!
#26
b0 z
b1 $
b1110010001100100011110100110001001100000010000001100001011001100111010001100101011100100010000001000001010001000100010001001001 w
b1010 u
b1010 v
#30
0!
#35
b10100 -
b10100 K
b10100 Q
b1010 .
b1010 J
b1010 P
b11110 0
b11110 F
b11110 g
b11000 3
b11000 T
b11000 o
b1 ;
b1 G
b1 p
b10 ,
b10 E
b10 n
b11 *
b11 D
b11 m
b0 <
b0 U
b0 q
b0 1
b0 I
b0 O
b11000000010001000011000000000000 :
b11000000010001000011000000000000 B
b11000000010001000011000000000000 l
b10000000001000 2
b10000000001000 =
b10000000001000 S
b10000000001000 s
b10000000001000 t
b1 z
1!
#36
b0 z
b10 $
b1110010001100110011110100110010001100000010000001100001011001100111010001100101011100100010000001000001010001000100010001001001 w
b10100 u
b10100 v
#40
0!
#45
b0 0
b0 F
b0 g
b0 -
b0 K
b0 Q
b0 .
b0 J
b0 P
b0 3
b0 T
b0 o
b0 ;
b0 G
b0 p
b0 ,
b0 E
b0 n
b0 *
b0 D
b0 m
b0 :
b0 B
b0 l
b0 1
b0 I
b0 O
b10000000001100 2
b10000000001100 =
b10000000001100 S
b10000000001100 s
b10000000001100 t
b1 z
1!
#46
b11 $
b11100100011000100111101011100100011001000101011011100100011001100111101001100110011000000100000011000010110011001110100011001010111001000100000010000010100010001000100 w
b11110 u
b11110 v
