sim/tb_tinker_core.vcd
$date
	Mon Mar 30 00:32:05 2026
$end
$version
	Icarus Verilog
$end
$timescale
	1s
$end
$scope module tb_tinker_core $end
$var reg 1 ! clk $end
$var reg 1 " reset $end
$var integer 32 # fail [31:0] $end
$var integer 32 $ pass [31:0] $end
$scope function enc $end
$var reg 12 % L [11:0] $end
$var reg 5 & d [4:0] $end
$var reg 5 ' op [4:0] $end
$var reg 5 ( s [4:0] $end
$var reg 5 ) t [4:0] $end
$upscope $end
$scope module core $end
$var wire 1 ! clk $end
$var wire 1 " reset $end
$var wire 5 * t [4:0] $end
$var wire 64 + stack_pointer [63:0] $end
$var wire 5 , s [4:0] $end
$var wire 64 - rt_data [63:0] $end
$var wire 64 . rs_data [63:0] $end
$var wire 1 / reg_write $end
$var wire 64 0 reg_out_value [63:0] $end
$var wire 64 1 rd_data [63:0] $end
$var wire 64 2 pc_address [63:0] $end
$var wire 5 3 opcode [4:0] $end
$var wire 1 4 ooo_signal $end
$var wire 64 5 ooo_address [63:0] $end
$var wire 1 6 memory_write $end
$var wire 64 7 memory_read_alu [63:0] $end
$var wire 64 8 memory_pointer [63:0] $end
$var wire 64 9 memory_data_to_write [63:0] $end
$var wire 32 : instruction [31:0] $end
$var wire 5 ; d [4:0] $end
$var wire 12 < L_data [11:0] $end
$scope module memory $end
$var wire 1 ! clk $end
$var wire 1 " reset $end
$var wire 1 6 write $end
$var wire 64 = pc [63:0] $end
$var wire 64 > alu_pointer [63:0] $end
$var wire 64 ? alu_data [63:0] $end
$var parameter 32 @ MEM_SIZE $end
$var reg 64 A address_value [63:0] $end
$var reg 32 B instruction [31:0] $end
$var integer 32 C i [31:0] $end
$upscope $end
$scope module reg_file $end
$var wire 1 ! clk $end
$var wire 1 " reset $end
$var wire 1 / write $end
$var wire 5 D t [4:0] $end
$var wire 5 E s [4:0] $end
$var wire 64 F data_write [63:0] $end
$var wire 5 G d [4:0] $end
$var parameter 32 H MEM_SIZE $end
$var reg 64 I rd [63:0] $end
$var reg 64 J rs [63:0] $end
$var reg 64 K rt [63:0] $end
$var reg 64 L stack_pointer [63:0] $end
$var integer 32 M i [31:0] $end
$upscope $end
$scope module u_alu $end
$var wire 64 N memory_value [63:0] $end
$var wire 64 O rd [63:0] $end
$var wire 64 P rs [63:0] $end
$var wire 64 Q rt [63:0] $end
$var wire 64 R stack_pointer [63:0] $end
$var wire 64 S pc [63:0] $end
$var wire 5 T opcode [4:0] $end
$var wire 12 U L [11:0] $end
$var reg 54 V addf_reg [53:0] $end
$var reg 13 W amount_shifted_1 [12:0] $end
$var reg 13 X amount_shifted_2 [12:0] $end
$var reg 1 Y carry_1 $end
$var reg 1 Z carry_2 $end
$var reg 109 [ divf_reg [108:0] $end
$var reg 13 \ final_exponent [12:0] $end
$var reg 13 ] float_exponent_1 [12:0] $end
$var reg 13 ^ float_exponent_2 [12:0] $end
$var reg 53 _ float_value_1 [52:0] $end
$var reg 53 ` float_value_2 [52:0] $end
$var reg 3 a grs_rounding [2:0] $end
$var reg 53 b mantissa_result [52:0] $end
$var reg 64 c memory_data_to_write [63:0] $end
$var reg 64 d memory_pointer [63:0] $end
$var reg 1 6 memory_write $end
$var reg 106 e multf_reg [105:0] $end
$var reg 64 f ooo_address [63:0] $end
$var reg 1 4 ooo_signal $end
$var reg 64 g reg_out_value [63:0] $end
$var reg 1 / reg_write $end
$scope begin $unm_blk_1 $end
$var integer 32 h found [31:0] $end
$var integer 32 i i [31:0] $end
$upscope $end
$upscope $end
$scope module u_decoder $end
$var wire 32 j instruction [31:0] $end
$var wire 5 k t [4:0] $end
$var wire 5 l s [4:0] $end
$var wire 5 m opcode [4:0] $end
$var wire 5 n d [4:0] $end
$var wire 12 o L [11:0] $end
$upscope $end
$scope module u_fetch $end
$var wire 1 ! clk $end
$var wire 64 p ooo_address [63:0] $end
$var wire 1 4 ooo_signal $end
$var wire 64 q pc_address [63:0] $end
$var wire 1 " reset $end
$var reg 64 r pc [63:0] $end
$upscope $end
$upscope $end
$scope task check64 $end
$var reg 64 s expected [63:0] $end
$var reg 64 t got [63:0] $end
$var reg 256 u label [255:0] $end
$upscope $end
$scope task do_reset $end
$upscope $end
$scope task load_instruction $end
$var reg 64 v addr [63:0] $end
$var reg 32 w instr [31:0] $end
$upscope $end
$scope task run_cycles $end
$var integer 32 x i [31:0] $end
$var integer 32 y n [31:0] $end
$upscope $end
$upscope $end
$enddefinitions $end
$comment Show the parameter values. $end
$dumpall
b10000000000000000000 H
b10000000000000000000 @
$end
#0
$dumpvars
bx y
bx x
b0 w
b10000000001100 v
bx u
bx t
bx s
b0 r
b0 q
b0 p
b0 o
b0 n
b0 m
b0 l
b0 k
b0 j
bx i
b0 h
b0 g
b0 f
b0 e
b0 d
b0 c
b0 b
b0 a
b0 `
b0 _
b0 ^
b0 ]
b0 \
b0 [
0Z
0Y
b0 X
b0 W
b0 V
b0 U
b0 T
b0 S
b10000000000000000000 R
b0 Q
b0 P
b0 O
b0 N
b11111 M
b10000000000000000000 L
b0 K
b0 J
b0 I
b0 G
b0 F
b0 E
b0 D
b10000000000000000000 C
b0 B
b0 A
b0 ?
b0 >
b0 =
b0 <
b0 ;
b0 :
b0 9
b0 8
b0 7
06
b0 5
04
b0 3
b0 2
b0 1
b0 0
1/
b0 .
b0 -
b0 ,
b10000000000000000000 +
b0 *
b0 )
b0 (
b0 '
b0 &
b0 %
b0 $
b0 #
0"
0!
$end
#5
b100 2
b100 =
b100 S
b100 q
b100 r
1!
#6
1"
#10
0!
#15
b1010 0
b1010 F
b1010 g
b11001 3
b11001 T
b11001 m
b10 ;
b10 G
b10 n
b1010 <
b1010 U
b1010 o
b11001000100000000000000000001010 :
b11001000100000000000000000001010 B
b11001000100000000000000000001010 j
b10000000000000 2
b10000000000000 =
b10000000000000 S
b10000000000000 q
b10000000000000 r
b11111 M
1!
#20
0!
#25
b11111 M
1!
#26
0"
#27
b0 x
b100 y
#30
0!
#35
b10100 0
b10100 F
b10100 g
b11 ;
b11 G
b11 n
b10100 <
b10100 U
b10100 o
b0 1
b0 I
b0 O
b11001000110000000000000000010100 :
b11001000110000000000000000010100 B
b11001000110000000000000000010100 j
b10000000000100 2
b10000000000100 =
b10000000000100 S
b10000000000100 q
b10000000000100 r
b1 x
1!
#40
0!
#45
b10100 -
b10100 K
b10100 Q
b1010 .
b1010 J
b1010 P
b11000 3
b11000 T
b11000 m
b1 ;
b1 G
b1 n
b10 ,
b10 E
b10 l
b11 *
b11 D
b11 k
b0 <
b0 U
b0 o
b11000000010001000011000000000000 :
b11000000010001000011000000000000 B
b11000000010001000011000000000000 j
b11110 0
b11110 F
b11110 g
b0 1
b0 I
b0 O
b10000000001000 2
b10000000001000 =
b10000000001000 S
b10000000001000 q
b10000000001000 r
b10 x
1!
#50
0!
#55
b0 -
b0 K
b0 Q
b0 .
b0 J
b0 P
b0 0
b0 F
b0 g
b0 3
b0 T
b0 m
b0 ;
b0 G
b0 n
b0 ,
b0 E
b0 l
b0 *
b0 D
b0 k
b0 1
b0 I
b0 O
b0 :
b0 B
b0 j
b10000000001100 2
b10000000001100 =
b10000000001100 S
b10000000001100 q
b10000000001100 r
b11 x
1!
#60
0!
#65
b10000000010000 2
b10000000010000 =
b10000000010000 S
b10000000010000 q
b10000000010000 r
b100 x
1!
#66
b10000000000000 v
b11 $
b11100100011000100111101011100100011001000101011011100100011001100111101001100110011000000100000011000010110011001110100011001010111001000100000010000010100010001000100 u
b11110 s
b11110 t
#70
0!
#75
b10000000010100 2
b10000000010100 =
b10000000010100 S
b10000000010100 q
b10000000010100 r
1!
#76
1"
#80
0!
#85
b10000000000000 2
b10000000000000 =
b10000000000000 S
b10000000000000 q
b10000000000000 r
b11111 M
1!
#90
0!
#95
b11111 M
1!
#96
0"
#97
b0 (
b10000000001100 v
b0 w
b0 '
b0 &
b0 %
b100 $
b11100100011001100110001001111010100110101000101010011010101111101010011010010010101101001000101001000000110111101101110001000000111001001100101011100110110010101110100 u
b10000000000000000000 s
b10000000000000000000 t
#100
0!
#105
0/
16
b10011 3
b10011 T
b10011 m
b110 ;
b110 G
b110 n
b110 ,
b110 E
b110 l
b10011001100011000000000000000000 :
b10011001100011000000000000000000 B
b10011001100011000000000000000000 j
b10000000000100 2
b10000000000100 =
b10000000000100 S
b10000000000100 q
b10000000000100 r
1!
#106
1"
#110
0!
#115
1/
b101010 0
b101010 F
b101010 g
06
b11001 3
b11001 T
b11001 m
b0 ,
b0 E
b0 l
b101010 <
b101010 U
b101010 o
b11001001100000000000000000101010 :
b11001001100000000000000000101010 B
b11001001100000000000000000101010 j
b10000000000000 2
b10000000000000 =
b10000000000000 S
b10000000000000 q
b10000000000000 r
b11111 M
1!
#120
0!
#125
b11111 M
1!
#126
0"
#127
b0 x
#130
0!
#135
b101010 9
b101010 ?
b101010 c
b101010 .
b101010 J
b101010 P
0/
b0 0
b0 F
b0 g
16
b101010 8
b101010 >
b101010 d
b10011 3
b10011 T
b10011 m
b110 ,
b110 E
b110 l
b0 <
b0 U
b0 o
b101010 1
b101010 I
b101010 O
b10011001100011000000000000000000 :
b10011001100011000000000000000000 B
b10011001100011000000000000000000 j
b10000000000100 2
b10000000000100 =
b10000000000100 S
b10000000000100 q
b10000000000100 r
b1 x
1!
#140
0!
#145
b0 1
b0 I
b0 O
1/
b101010 0
b101010 F
b101010 g
06
b0 9
b0 ?
b0 c
b10000 3
b10000 T
b10000 m
b111 ;
b111 G
b111 n
b101010 7
b101010 A
b101010 N
b10000001110011000000000000000000 :
b10000001110011000000000000000000 B
b10000001110011000000000000000000 j
b101010 8
b101010 >
b101010 d
b10000000001000 2
b10000000001000 =
b10000000001000 S
b10000000001000 q
b10000000001000 r
b10 x
1!
#150
0!
#155
b0 7
b0 A
b0 N
b0 .
b0 J
b0 P
b0 0
b0 F
b0 g
b0 3
b0 T
b0 m
b0 ;
b0 G
b0 n
b0 ,
b0 E
b0 l
b0 1
b0 I
b0 O
b0 :
b0 B
b0 j
b0 8
b0 >
b0 d
b10000000001100 2
b10000000001100 =
b10000000001100 S
b10000000001100 q
b10000000001100 r
b11 x
1!
#160
0!
#165
b10000000010000 2
b10000000010000 =
b10000000010000 S
b10000000010000 q
b10000000010000 r
b100 x
1!
#166
b0 (
b0 )
b0 w
b0 '
b0 &
b0 %
b10000000010000 v
b101 $
b1110010001101110011110100110100001100100010000001100001011001100111010001100101011100100010000001110011011101000110111101110010011001010010101101101100011011110110000101100100 u
b101010 s
b101010 t
#170
0!
#175
b10000000010100 2
b10000000010100 =
b10000000010100 S
b10000000010100 q
b10000000010100 r
1!
#176
1"
#180
0!
#185
b1100100 0
b1100100 F
b1100100 g
b11001 3
b11001 T
b11001 m
b100 ;
b100 G
b100 n
b1100100 <
b1100100 U
b1100100 o
b11001001000000000000000001100100 :
b11001001000000000000000001100100 B
b11001001000000000000000001100100 j
b10000000000000 2
b10000000000000 =
b10000000000000 S
b10000000000000 q
b10000000000000 r
b11111 M
1!
#190
0!
#195
b11111 M
1!
#196
0"
#197
b0 x
b101 y
#200
0!
#205
b101 ;
b101 G
b101 n
b11110 <
b11110 U
b11110 o
b11001001010000000000000000011110 :
b11001001010000000000000000011110 B
b11001001010000000000000000011110 j
b11110 0
b11110 F
b11110 g
b0 1
b0 I
b0 O
b10000000000100 2
b10000000000100 =
b10000000000100 S
b10000000000100 q
b10000000000100 r
b1 x
1!
#210
0!
#215
b11110 -
b11110 K
b11110 Q
b1100100 .
b1100100 J
b1100100 P
b1000110 0
b1000110 F
b1000110 g
b11010 3
b11010 T
b11010 m
b110 ;
b110 G
b110 n
b100 ,
b100 E
b100 l
b101 *
b101 D
b101 k
b0 <
b0 U
b0 o
b0 1
b0 I
b0 O
b11010001100010000101000000000000 :
b11010001100010000101000000000000 B
b11010001100010000101000000000000 j
b10000000001000 2
b10000000001000 =
b10000000001000 S
b10000000001000 q
b10000000001000 r
b10 x
1!
#220
0!
#225
b101110111000 0
b101110111000 F
b101110111000 g
b11100 3
b11100 T
b11100 m
b111 ;
b111 G
b111 n
b11100001110010000101000000000000 :
b11100001110010000101000000000000 B
b11100001110010000101000000000000 j
b0 1
b0 I
b0 O
b10000000001100 2
b10000000001100 =
b10000000001100 S
b10000000001100 q
b10000000001100 r
b11 x
1!
#230
0!
#235
b0 -
b0 K
b0 Q
b0 .
b0 J
b0 P
b0 0
b0 F
b0 g
b0 3
b0 T
b0 m
b0 ;
b0 G
b0 n
b0 ,
b0 E
b0 l
b0 *
b0 D
b0 k
b0 1
b0 I
b0 O
b0 :
b0 B
b0 j
b10000000010000 2
b10000000010000 =
b10000000010000 S
b10000000010000 q
b10000000010000 r
b100 x
1!
#240
0!
#245
b10000000010100 2
b10000000010100 =
b10000000010100 S
b10000000010100 q
b10000000010100 r
b101 x
1!
#246
b0 %
b0 w
b0 '
b0 &
b0 (
b0 )
b10000000010000 v
b111 $
b11100100011011100111101001100010011000000110000001010100011001100110000001111010011001100110000001100000011000000100000011000010110011001110100011001010111001000100000010011010101010101001100 u
b101110111000 s
b101110111000 t
#250
0!
#255
b10000000011000 2
b10000000011000 =
b10000000011000 S
b10000000011000 q
b10000000011000 r
1!
#256
1"
#260
0!
#265
b11010 3
b11010 T
b11010 m
b1 ;
b1 G
b1 n
b1 ,
b1 E
b1 l
b1 *
b1 D
b1 k
b11010000010000100001000000000000 :
b11010000010000100001000000000000 B
b11010000010000100001000000000000 j
b10000000000000 2
b10000000000000 =
b10000000000000 S
b10000000000000 q
b10000000000000 r
b11111 M
1!
#270
0!
#275
b11111 M
1!
#276
0"
#277
b0 x
#280
0!
#285
b101 0
b101 F
b101 g
b11001 3
b11001 T
b11001 m
b0 ,
b0 E
b0 l
b0 *
b0 D
b0 k
b101 <
b101 U
b101 o
b11001000010000000000000000000101 :
b11001000010000000000000000000101 B
b11001000010000000000000000000101 j
b10000000000100 2
b10000000000100 =
b10000000000100 S
b10000000000100 q
b10000000000100 r
b1 x
1!
#290
0!
#295
0/
b0 0
b0 F
b0 g
b10000000010000 5
b10000000010000 f
b10000000010000 p
14
b1010 3
b1010 T
b1010 m
b0 ;
b0 G
b0 n
b1000 <
b1000 U
b1000 o
b0 1
b0 I
b0 O
b1010000000000000000000000001000 :
b1010000000000000000000000001000 B
b1010000000000000000000000001000 j
b10000000001000 2
b10000000001000 =
b10000000001000 S
b10000000001000 q
b10000000001000 r
b10 x
1!
#300
0!
#305
1/
04
b0 3
b0 T
b0 m
b0 <
b0 U
b0 o
b0 :
b0 B
b0 j
b0 5
b0 f
b0 p
b10000000010000 2
b10000000010000 =
b10000000010000 S
b10000000010000 q
b10000000010000 r
b11 x
1!
#310
0!
#315
b10000000010100 2
b10000000010100 =
b10000000010100 S
b10000000010100 q
b10000000010100 r
b100 x
1!
#320
0!
#325
b10000000011000 2
b10000000011000 =
b10000000011000 S
b10000000011000 q
b10000000011000 r
b101 x
1!
#326
b1000 $
b11100100011000100111101001101010010000001100010011100100110000101101110011000110110100000100000011100110110101101101001011100000111000001100101011001000010000001000001010001000100010001001001001000000011100100111001 u
b101 s
b101 t
